<?xml version="1.0" encoding="UTF-8" standalone="no"?>
<!-- Created with Inkscape (http://www.inkscape.org/) -->

<svg
   xmlns:dc="http://purl.org/dc/elements/1.1/"
   xmlns:cc="http://creativecommons.org/ns#"
   xmlns:rdf="http://www.w3.org/1999/02/22-rdf-syntax-ns#"
   xmlns:svg="http://www.w3.org/2000/svg"
   xmlns="http://www.w3.org/2000/svg"
   xmlns:sodipodi="http://sodipodi.sourceforge.net/DTD/sodipodi-0.dtd"
   xmlns:inkscape="http://www.inkscape.org/namespaces/inkscape"
   width="106.29921"
   height="106.29921"
   id="svg2"
   version="1.1"
   inkscape:version="0.48.4 r9939"
   sodipodi:docname="icon2.svg">
  <sodipodi:namedview
     id="base"
     pagecolor="#ffffff"
     bordercolor="#666666"
     borderopacity="1.0"
     inkscape:pageopacity="0.0"
     inkscape:pageshadow="2"
     inkscape:zoom="3.441651"
     inkscape:cx="70.737704"
     inkscape:cy="-5.9177817"
     inkscape:document-units="px"
     inkscape:current-layer="layer1"
     showgrid="true"
     inkscape:window-width="1855"
     inkscape:window-height="1056"
     inkscape:window-x="65"
     inkscape:window-y="24"
     inkscape:window-maximized="1"
     inkscape:snap-smooth-nodes="false"
     inkscape:object-nodes="true"
     fit-margin-top="0"
     fit-margin-left="0"
     fit-margin-right="0"
     fit-margin-bottom="0"
     inkscape:snap-bbox="true"
     inkscape:bbox-nodes="true">
    <inkscape:grid
       type="xygrid"
       id="grid3043"
       empspacing="5"
       visible="true"
       enabled="true"
       snapvisiblegridlinesonly="true"
       units="mm"
       spacingx="1mm"
       spacingy="1mm"
       dotted="true"
       originx="-105mm"
       originy="-135mm" />
  </sodipodi:namedview>
  <defs
     id="defs4" />
  <metadata
     id="metadata7">
    <rdf:RDF>
      <cc:Work
         rdf:about="">
        <dc:format>image/svg+xml</dc:format>
        <dc:type
           rdf:resource="http://purl.org/dc/dcmitype/StillImage" />
        <dc:title />
      </cc:Work>
    </rdf:RDF>
  </metadata>
  <g
     id="layer1"
     inkscape:groupmode="layer"
     inkscape:label="Layer 1"
     transform="translate(-372.04726,-467.71652)">
    <g
       id="eye"
       transform="translate(1.2174255e-6,-5.2204955e-6)">
      <path
         transform="translate(371.5625,467.21875)"
         d="m 106.78397,53.647377 c 0,29.353716 -23.795889,53.149603 -53.149605,53.149603 -29.353716,0 -53.14960472,-23.795887 -53.14960472,-53.149603 0,-29.353716 23.79588872,-53.14960478 53.14960472,-53.14960478 29.353716,0 53.149605,23.79588878 53.149605,53.14960478 z"
         sodipodi:ry="53.149605"
         sodipodi:rx="53.149605"
         sodipodi:cy="53.647377"
         sodipodi:cx="53.634365"
         id="path3861"
         style="fill:#cccccc;stroke:none"
         sodipodi:type="arc" />
      <path
         transform="translate(368.01919,467.21875)"
         d="m 89.067436,53.647377 c 0,17.61223 -14.277533,31.889763 -31.889763,31.889763 -17.612229,0 -31.889763,-14.277533 -31.889763,-31.889763 0,-17.61223 14.277534,-31.889763 31.889763,-31.889763 17.61223,0 31.889763,14.277533 31.889763,31.889763 z"
         sodipodi:ry="31.889763"
         sodipodi:rx="31.889763"
         sodipodi:cy="53.647377"
         sodipodi:cx="57.177673"
         id="path3079"
         style="fill:#000000;stroke:#000000;stroke-width:1.25;stroke-linecap:butt;stroke-miterlimit:4;stroke-opacity:1;stroke-dasharray:none;stroke-dashoffset:0"
         sodipodi:type="arc" />
      <path
         sodipodi:nodetypes="caacaac"
         inkscape:connector-curvature="0"
         id="path3077"
         d="m 376.09057,520.86612 c 0,0 21.40442,-24.0389 36.01128,-29.20771 8.22188,-2.9094 17.96815,-2.9094 26.19002,0 14.60687,5.16881 36.0113,29.20771 36.0113,29.20771 0,0 -21.40443,24.03891 -36.0113,29.20772 -8.22187,2.9094 -17.96814,2.9094 -26.19002,0 -14.60686,-5.16881 -36.01128,-29.20772 -36.01128,-29.20772 z"
         style="fill:none;stroke:#000000;stroke-width:3.75;stroke-linecap:butt;stroke-linejoin:miter;stroke-miterlimit:4;stroke-opacity:1;stroke-dasharray:none" />
      <path
         id="path3081"
         d="m 411.8125,491.90625 c -5.35787,2.48095 -9.90706,6.41249 -13.15625,11.28125 l 26.53125,17.6875 -13.375,-28.96875 z"
         style="fill:#ffffff;stroke:#000000;stroke-width:1px;stroke-linecap:butt;stroke-linejoin:miter;stroke-opacity:1"
         inkscape:connector-curvature="0" />
      <path
         id="path3083"
         d="m 395.65625,508.875 c -1.50757,3.70636 -2.34375,7.75213 -2.34375,12 0,0.13755 -0.002,0.26912 0,0.40625 L 425,520.53125 395.65625,508.875 z"
         style="fill:#ffffff;stroke:#000000;stroke-width:1px;stroke-linecap:butt;stroke-linejoin:miter;stroke-opacity:1"
         inkscape:connector-curvature="0" />
      <path
         sodipodi:type="arc"
         style="fill:none;stroke:#000000;stroke-width:3.75;stroke-linecap:butt;stroke-miterlimit:4;stroke-opacity:1;stroke-dasharray:none;stroke-dashoffset:0"
         id="path3859"
         sodipodi:cx="57.177673"
         sodipodi:cy="53.647377"
         sodipodi:rx="31.889763"
         sodipodi:ry="31.889763"
         d="m 89.067436,53.647377 c 0,17.61223 -14.277533,31.889763 -31.889763,31.889763 -17.612229,0 -31.889763,-14.277533 -31.889763,-31.889763 0,-17.61223 14.277534,-31.889763 31.889763,-31.889763 17.61223,0 31.889763,14.277533 31.889763,31.889763 z"
         transform="translate(368.01919,467.21875)" />
      <path
         sodipodi:type="arc"
         style="fill:#000000;stroke:#000000;stroke-width:3.74965358;stroke-linecap:butt;stroke-miterlimit:4;stroke-opacity:1;stroke-dasharray:none;stroke-dashoffset:0"
         id="path3874"
         sodipodi:cx="57.177673"
         sodipodi:cy="53.647377"
         sodipodi:rx="31.889763"
         sodipodi:ry="31.889763"
         d="m 89.067436,53.647377 c 0,17.61223 -14.277533,31.889763 -31.889763,31.889763 -17.612229,0 -31.889763,-14.277533 -31.889763,-31.889763 0,-17.61223 14.277534,-31.889763 31.889763,-31.889763 17.61223,0 31.889763,14.277533 31.889763,31.889763 z"
         transform="matrix(0.33333343,0,0,0.33339482,406.13763,502.98037)" />
    </g>
    <g
       id="wrong"
       transform="translate(85.039383,-205.51179)">
      <path
         d="m 106.78397,53.647377 c 0,29.353716 -23.795889,53.149603 -53.149605,53.149603 -29.353716,0 -53.14960472,-23.795887 -53.14960472,-53.149603 0,-29.353716 23.79588872,-53.14960478 53.14960472,-53.14960478 29.353716,0 53.149605,23.79588878 53.149605,53.14960478 z"
         sodipodi:ry="53.149605"
         sodipodi:rx="53.149605"
         sodipodi:cy="53.647377"
         sodipodi:cx="53.634365"
         id="path3861-2"
         style="fill:#ff0000;stroke:none"
         sodipodi:type="arc"
         transform="translate(371.56249,715.25022)" />
      <path
         inkscape:connector-curvature="0"
         id="path3901"
         d="m 396.8504,740.55114 56.69291,56.69291"
         style="fill:none;stroke:#000000;stroke-width:3.75;stroke-linecap:butt;stroke-linejoin:miter;stroke-miterlimit:4;stroke-opacity:1;stroke-dasharray:none" />
      <path
         inkscape:connector-curvature="0"
         id="path3901-7"
         d="m 396.8504,797.24405 56.69291,-56.69291"
         style="fill:none;stroke:#000000;stroke-width:3.75;stroke-linecap:butt;stroke-linejoin:miter;stroke-miterlimit:4;stroke-opacity:1;stroke-dasharray:none" />
    </g>
    <g
       id="g3019"
       transform="translate(92.125987,-17.716529)">
      <path
         d="m 106.78397,53.647377 c 0,29.353716 -23.795889,53.149603 -53.149605,53.149603 -29.353716,0 -53.14960472,-23.795887 -53.14960472,-53.149603 0,-29.353716 23.79588872,-53.14960478 53.14960472,-53.14960478 29.353716,0 53.149605,23.79588878 53.149605,53.14960478 z"
         sodipodi:ry="53.149605"
         sodipodi:rx="53.149605"
         sodipodi:cy="53.647377"
         sodipodi:cx="53.634365"
         id="path3861-1"
         style="fill:#5fd35f;stroke:none"
         sodipodi:type="arc"
         transform="translate(371.5625,467.21874)" />
      <path
         sodipodi:nodetypes="ccc"
         inkscape:connector-curvature="0"
         id="path3942"
         d="m 396.85041,520.86612 21.25984,31.88976 35.43307,-60.23622"
         style="fill:none;stroke:#000000;stroke-width:3.75;stroke-linecap:butt;stroke-linejoin:miter;stroke-miterlimit:4;stroke-opacity:1;stroke-dasharray:none" />
    </g>
    <g
       id="g3028">
      <path
         transform="translate(371.5625,467.21874)"
         d="m 106.78397,53.647377 a 53.149605,53.149605 0 1 1 -106.29920972,0 53.149605,53.149605 0 1 1 106.29920972,0 z"
         sodipodi:ry="53.149605"
         sodipodi:rx="53.149605"
         sodipodi:cy="53.647377"
         sodipodi:cx="53.634365"
         id="path3861-4"
         style="fill:#cccccc;stroke:none"
         sodipodi:type="arc" />
      <path
         transform="translate(372.04726,467.71652)"
         d="m 88.582676,53.149605 a 35.433071,35.433071 0 1 1 -70.866142,0 35.433071,35.433071 0 1 1 70.866142,0 z"
         sodipodi:ry="35.433071"
         sodipodi:rx="35.433071"
         sodipodi:cy="53.149605"
         sodipodi:cx="53.149605"
         id="path3023"
         style="fill:none;fill-opacity:1;stroke:#000000;stroke-width:3.75000000000000000;stroke-linecap:butt;stroke-miterlimit:4;stroke-opacity:1;stroke-dasharray:none;stroke-dashoffset:0"
         sodipodi:type="arc" />
    </g>
    <g
       id="choose">
      <path
         id="path3923"
         d="m 400.39101,627.31027 c -27.69595,1.82927 -49.59375,24.84105 -49.59375,53 0,28.15919 21.89747,51.20232 49.59375,53.03125 l 0,-106.03125 z"
         style="fill:#cccccc;fill-opacity:1;stroke:none" />
      <path
         id="path3861-2-6-2-7"
         d="m 407.48476,627.31027 0,106.03125 c 27.69628,-1.82893 49.59375,-24.87206 49.59375,-53.03125 0,-28.15895 -21.8978,-51.17073 -49.59375,-53 z"
         style="fill:#cccccc;fill-opacity:1;stroke:none" />
      <path
         transform="matrix(0,1,-1,0,606.4033,832.1924)"
         d="m -166.05067,177.66313 a 7.0866141,7.0866141 0 1 1 -14.17323,0 7.0866141,7.0866141 0 1 1 14.17323,0 z"
         sodipodi:ry="7.0866141"
         sodipodi:rx="7.0866141"
         sodipodi:cy="177.66313"
         sodipodi:cx="-173.13728"
         id="path4223-7"
         style="fill:#999999;fill-opacity:1;stroke:none"
         sodipodi:type="arc" />
      <path
         transform="matrix(0,1,-1,0,606.4033,874.71209)"
         d="m -166.05067,177.66313 a 7.0866141,7.0866141 0 1 1 -14.17323,0 7.0866141,7.0866141 0 1 1 14.17323,0 z"
         sodipodi:ry="7.0866141"
         sodipodi:rx="7.0866141"
         sodipodi:cy="177.66313"
         sodipodi:cx="-173.13728"
         id="path4223-1-0"
         style="fill:#999999;fill-opacity:1;stroke:none"
         sodipodi:type="arc" />
      <path
         sodipodi:nodetypes="cc"
         inkscape:connector-curvature="0"
         id="path3901-7-6-2-9-9"
         d="m 428.74017,701.57479 0,-42.51969"
         style="fill:#999999;stroke:#999999;stroke-width:3.74999976000000013;stroke-linecap:butt;stroke-linejoin:miter;stroke-miterlimit:4;stroke-opacity:1;stroke-dasharray:none" />
      <path
         transform="matrix(0,1,-1,0,556.797,832.1924)"
         d="m -166.05067,177.66313 a 7.0866141,7.0866141 0 1 1 -14.17323,0 7.0866141,7.0866141 0 1 1 14.17323,0 z"
         sodipodi:ry="7.0866141"
         sodipodi:rx="7.0866141"
         sodipodi:cy="177.66313"
         sodipodi:cx="-173.13728"
         id="path4223-7-3"
         style="fill:#999999;fill-opacity:1;stroke:none"
         sodipodi:type="arc" />
      <path
         transform="matrix(0,1,-1,0,556.797,874.71209)"
         d="m -166.05067,177.66313 a 7.0866141,7.0866141 0 1 1 -14.17323,0 7.0866141,7.0866141 0 1 1 14.17323,0 z"
         sodipodi:ry="7.0866141"
         sodipodi:rx="7.0866141"
         sodipodi:cy="177.66313"
         sodipodi:cx="-173.13728"
         id="path4223-1-0-6"
         style="fill:#999999;fill-opacity:1;stroke:none"
         sodipodi:type="arc" />
      <path
         sodipodi:nodetypes="cc"
         inkscape:connector-curvature="0"
         id="path3901-7-6-2-9-9-0"
         d="M 364.96065,676.77164 379.13387,659.0551"
         style="fill:#999999;stroke:#999999;stroke-width:3.74999976000000013;stroke-linecap:butt;stroke-linejoin:miter;stroke-miterlimit:4;stroke-opacity:1;stroke-dasharray:none;fill-opacity:1" />
      <path
         sodipodi:nodetypes="cc"
         inkscape:connector-curvature="0"
         id="path3901-7-6-2-9-9-0-6"
         d="m 379.13387,701.57478 14.17322,-17.71654"
         style="fill:#999999;stroke:#999999;stroke-width:3.74999976000000013;stroke-linecap:butt;stroke-linejoin:miter;stroke-miterlimit:4;stroke-opacity:1;stroke-dasharray:none;fill-opacity:1" />
    </g>
    <g
       id="g4038"
       inkscape:label="#distinct">
      <path
         id="path3923-2"
         d="m 524.40233,627.16534 c -27.69595,1.82927 -49.59375,24.84105 -49.59375,53 0,28.15919 21.89747,51.20232 49.59375,53.03125 l 0,-106.03125 z"
         style="fill:#ff0000;fill-opacity:1;stroke:none"
         inkscape:connector-curvature="0" />
      <path
         id="path3861-2-6-2-7-6"
         d="m 531.49608,627.16534 0,106.03125 c 27.69628,-1.82893 49.59375,-24.87206 49.59375,-53.03125 0,-28.15895 -21.8978,-51.17073 -49.59375,-53 z"
         style="fill:#cccccc;fill-opacity:1;stroke:none"
         inkscape:connector-curvature="0" />
      <path
         transform="matrix(0,1,-1,0,730.41462,832.04747)"
         d="m -166.05067,177.66313 a 7.0866141,7.0866141 0 1 1 -14.17323,0 7.0866141,7.0866141 0 1 1 14.17323,0 z"
         sodipodi:ry="7.0866141"
         sodipodi:rx="7.0866141"
         sodipodi:cy="177.66313"
         sodipodi:cx="-173.13728"
         id="path4223-7-1"
         style="fill:#999999;fill-opacity:1;stroke:none"
         sodipodi:type="arc" />
      <path
         transform="matrix(0,1,-1,0,730.41462,874.56712)"
         d="m -166.05067,177.66313 a 7.0866141,7.0866141 0 1 1 -14.17323,0 7.0866141,7.0866141 0 1 1 14.17323,0 z"
         sodipodi:ry="7.0866141"
         sodipodi:rx="7.0866141"
         sodipodi:cy="177.66313"
         sodipodi:cx="-173.13728"
         id="path4223-1-0-8"
         style="fill:#999999;fill-opacity:1;stroke:none"
         sodipodi:type="arc" />
      <path
         sodipodi:nodetypes="cc"
         inkscape:connector-curvature="0"
         id="path3901-7-6-2-9-9-7"
         d="m 552.75149,701.42986 0,-42.51969"
         style="fill:#999999;stroke:#999999;stroke-width:3.74999976;stroke-linecap:butt;stroke-linejoin:miter;stroke-miterlimit:4;stroke-opacity:1;stroke-dasharray:none" />
      <path
         transform="matrix(0,1,-1,0,680.80832,832.04747)"
         d="m -166.05067,177.66313 a 7.0866141,7.0866141 0 1 1 -14.17323,0 7.0866141,7.0866141 0 1 1 14.17323,0 z"
         sodipodi:ry="7.0866141"
         sodipodi:rx="7.0866141"
         sodipodi:cy="177.66313"
         sodipodi:cx="-173.13728"
         id="path4223-7-3-9"
         style="fill:#000000;fill-opacity:1;stroke:none"
         sodipodi:type="arc" />
      <path
         transform="matrix(0,1,-1,0,680.80832,874.56712)"
         d="m -166.05067,177.66313 a 7.0866141,7.0866141 0 1 1 -14.17323,0 7.0866141,7.0866141 0 1 1 14.17323,0 z"
         sodipodi:ry="7.0866141"
         sodipodi:rx="7.0866141"
         sodipodi:cy="177.66313"
         sodipodi:cx="-173.13728"
         id="path4223-1-0-6-2"
         style="fill:#000000;fill-opacity:1;stroke:none"
         sodipodi:type="arc" />
      <path
         sodipodi:nodetypes="cc"
         inkscape:connector-curvature="0"
         id="path3901-7-6-2-9-9-0-0"
         d="m 488.97197,676.62671 14.17322,-17.71654"
         style="fill:#000000;stroke:#000000;stroke-width:3.74999976;stroke-linecap:butt;stroke-linejoin:miter;stroke-miterlimit:4;stroke-opacity:1;stroke-dasharray:none" />
      <path
         sodipodi:nodetypes="cc"
         inkscape:connector-curvature="0"
         id="path3901-7-6-2-9-9-0-6-2"
         d="m 503.14519,701.42985 14.17322,-17.71654"
         style="fill:#000000;stroke:#000000;stroke-width:3.74999976;stroke-linecap:butt;stroke-linejoin:miter;stroke-miterlimit:4;stroke-opacity:1;stroke-dasharray:none" />
    </g>
    <g
       id="equal">
      <path
         id="path3923-2-3"
         d="m 648.41808,627.16534 c -27.69595,1.82927 -49.59375,24.84105 -49.59375,53 0,28.15919 21.89747,51.20232 49.59375,53.03125 l 0,-106.03125 z"
         style="fill:#cccccc;fill-opacity:1;stroke:none"
         inkscape:connector-curvature="0" />
      <path
         id="path3861-2-6-2-7-6-7"
         d="m 655.51183,627.16534 0,106.03125 c 27.69628,-1.82893 49.59375,-24.87206 49.59375,-53.03125 0,-28.15895 -21.8978,-51.17073 -49.59375,-53 z"
         style="fill:#ff0000;fill-opacity:1;stroke:none"
         inkscape:connector-curvature="0" />
      <path
         transform="matrix(0,1,-1,0,854.43037,832.04747)"
         d="m -166.05067,177.66313 a 7.0866141,7.0866141 0 1 1 -14.17323,0 7.0866141,7.0866141 0 1 1 14.17323,0 z"
         sodipodi:ry="7.0866141"
         sodipodi:rx="7.0866141"
         sodipodi:cy="177.66313"
         sodipodi:cx="-173.13728"
         id="path4223-7-1-5"
         style="fill:#000000;fill-opacity:1;stroke:none"
         sodipodi:type="arc" />
      <path
         transform="matrix(0,1,-1,0,854.43037,874.56712)"
         d="m -166.05067,177.66313 a 7.0866141,7.0866141 0 1 1 -14.17323,0 7.0866141,7.0866141 0 1 1 14.17323,0 z"
         sodipodi:ry="7.0866141"
         sodipodi:rx="7.0866141"
         sodipodi:cy="177.66313"
         sodipodi:cx="-173.13728"
         id="path4223-1-0-8-9"
         style="fill:#000000;fill-opacity:1;stroke:none"
         sodipodi:type="arc" />
      <path
         sodipodi:nodetypes="cc"
         inkscape:connector-curvature="0"
         id="path3901-7-6-2-9-9-7-2"
         d="m 676.76724,701.42986 0,-42.51969"
         style="fill:#000000;stroke:#000000;stroke-width:3.74999976000000013;stroke-linecap:butt;stroke-linejoin:miter;stroke-miterlimit:4;stroke-opacity:1;stroke-dasharray:none" />
      <path
         transform="matrix(0,1,-1,0,804.82407,832.04747)"
         d="m -166.05067,177.66313 a 7.0866141,7.0866141 0 1 1 -14.17323,0 7.0866141,7.0866141 0 1 1 14.17323,0 z"
         sodipodi:ry="7.0866141"
         sodipodi:rx="7.0866141"
         sodipodi:cy="177.66313"
         sodipodi:cx="-173.13728"
         id="path4223-7-3-9-2"
         style="fill:#999999;fill-opacity:1;stroke:none"
         sodipodi:type="arc" />
      <path
         transform="matrix(0,1,-1,0,804.82407,874.56712)"
         d="m -166.05067,177.66313 a 7.0866141,7.0866141 0 1 1 -14.17323,0 7.0866141,7.0866141 0 1 1 14.17323,0 z"
         sodipodi:ry="7.0866141"
         sodipodi:rx="7.0866141"
         sodipodi:cy="177.66313"
         sodipodi:cx="-173.13728"
         id="path4223-1-0-6-2-8"
         style="fill:#999999;fill-opacity:1;stroke:none"
         sodipodi:type="arc" />
      <path
         sodipodi:nodetypes="cc"
         inkscape:connector-curvature="0"
         id="path3901-7-6-2-9-9-0-0-9"
         d="m 612.98772,676.62671 14.17322,-17.71654"
         style="fill:#000000;stroke:#999999;stroke-width:3.74999976000000013;stroke-linecap:butt;stroke-linejoin:miter;stroke-miterlimit:4;stroke-opacity:1;stroke-dasharray:none" />
      <path
         sodipodi:nodetypes="cc"
         inkscape:connector-curvature="0"
         id="path3901-7-6-2-9-9-0-6-2-7"
         d="m 627.16094,701.42985 14.17322,-17.71654"
         style="fill:#000000;stroke:#999999;stroke-width:3.74999976000000013;stroke-linecap:butt;stroke-linejoin:miter;stroke-miterlimit:4;stroke-opacity:1;stroke-dasharray:none" />
    </g>
  </g>
</svg>
