<?xml version="1.0" encoding="UTF-8" standalone="no"?>
<svg
   xmlns:dc="http://purl.org/dc/elements/1.1/"
   xmlns:cc="http://creativecommons.org/ns#"
   xmlns:rdf="http://www.w3.org/1999/02/22-rdf-syntax-ns#"
   xmlns:svg="http://www.w3.org/2000/svg"
   xmlns="http://www.w3.org/2000/svg"
   xmlns:sodipodi="http://sodipodi.sourceforge.net/DTD/sodipodi-0.dtd"
   xmlns:inkscape="http://www.inkscape.org/namespaces/inkscape"
   height="1000"
   width="937.5"
   id="svg2"
   version="1.1"
   inkscape:version="0.48.4 r9939"
   sodipodi:docname="ok.svg">
  <metadata
     id="metadata10">
    <rdf:RDF>
      <cc:Work
         rdf:about="">
        <dc:format>image/svg+xml</dc:format>
        <dc:type
           rdf:resource="http://purl.org/dc/dcmitype/StillImage" />
        <dc:title></dc:title>
      </cc:Work>
    </rdf:RDF>
  </metadata>
  <defs
     id="defs8" />
  <sodipodi:namedview
     pagecolor="#ffffff"
     bordercolor="#666666"
     borderopacity="1"
     objecttolerance="10"
     gridtolerance="10"
     guidetolerance="10"
     inkscape:pageopacity="0"
     inkscape:pageshadow="2"
     inkscape:window-width="1855"
     inkscape:window-height="1056"
     id="namedview6"
     showgrid="true"
     inkscape:snap-bbox="true"
     inkscape:bbox-nodes="true"
     inkscape:zoom="0.21410547"
     inkscape:cx="2222.027"
     inkscape:cy="-152.59331"
     inkscape:window-x="65"
     inkscape:window-y="24"
     inkscape:window-maximized="1"
     inkscape:current-layer="svg2">
    <inkscape:grid
       type="xygrid"
       id="grid2987"
       empspacing="5"
       visible="true"
       enabled="true"
       snapvisiblegridlinesonly="true"
       dotted="true" />
  </sodipodi:namedview>
  <path
     inkscape:connector-curvature="0"
     id="path2989"
     d="M 3.04,511.52 Q 3.04,416.36 40.128,329.496 77.216,242.632 139.924,179.924 202.632,117.216 289.496,80.128 376.36,43.04 471.52,43.04 q 95.16,0 182.024,37.088 86.864,37.088 149.572,99.796 62.708,62.708 99.796,149.572 Q 940,416.36 940,511.52 q 0,95.16 -37.088,182.024 -37.088,86.864 -99.796,149.572 -62.708,62.708 -149.572,99.796 Q 566.68,980 471.52,980 376.36,980 289.496,942.912 202.632,905.824 139.924,843.116 77.216,780.408 40.128,693.544 3.04,606.68 3.04,511.52 z m 176.656,31.232 q 0,21.96 15.128,37.576 l 153.232,152.744 q 14.152,15.616 37.576,15.616 21.96,0 37.576,-15.616 l 314.76,-314.76 q 15.616,-15.616 15.616,-37.576 0,-21.96 -15.616,-37.088 -15.616,-15.128 -37.576,-15.128 -21.96,0 -37.576,15.128 L 385.632,620.832 269.976,505.664 q -15.128,-15.616 -37.332,-15.616 -22.204,0 -37.82,15.616 -15.128,15.128 -15.128,37.088 z"
     style="fill:#cccccc" />
  <path
     d="M 0,468.48 Q 0,373.32 37.088,286.456 74.176,199.592 136.884,136.884 199.592,74.176 286.456,37.088 373.32,0 468.48,0 q 95.16,0 182.024,37.088 86.864,37.088 149.572,99.796 62.708,62.708 99.796,149.572 37.088,86.864 37.088,182.024 0,95.16 -37.088,182.024 -37.088,86.864 -99.796,149.572 -62.708,62.708 -149.572,99.796 -86.864,37.088 -182.024,37.088 -95.16,0 -182.024,-37.088 Q 199.592,862.784 136.884,800.076 74.176,737.368 37.088,650.504 0,563.64 0,468.48 z m 176.656,31.232 q 0,21.96 15.128,37.576 l 153.232,152.744 q 14.152,15.616 37.576,15.616 21.96,0 37.576,-15.616 l 314.76,-314.76 q 15.616,-15.616 15.616,-37.576 0,-21.96 -15.616,-37.088 -15.616,-15.128 -37.576,-15.128 -21.96,0 -37.576,15.128 L 382.592,577.792 266.936,462.624 q -15.128,-15.616 -37.332,-15.616 -22.204,0 -37.82,15.616 -15.128,15.128 -15.128,37.088 z"
     id="path4"
     inkscape:connector-curvature="0" />
</svg>
