<?xml version="1.0" encoding="UTF-8" standalone="no"?>
<svg
   xmlns:dc="http://purl.org/dc/elements/1.1/"
   xmlns:cc="http://creativecommons.org/ns#"
   xmlns:rdf="http://www.w3.org/1999/02/22-rdf-syntax-ns#"
   xmlns:svg="http://www.w3.org/2000/svg"
   xmlns="http://www.w3.org/2000/svg"
   xmlns:sodipodi="http://sodipodi.sourceforge.net/DTD/sodipodi-0.dtd"
   xmlns:inkscape="http://www.inkscape.org/namespaces/inkscape"
   id="canvas"
   version="1.1"
   inkscape:version="0.48.4 r9939"
   width="836.09253"
   height="716.09253"
   sodipodi:docname="screenshot.svg">
  <metadata
     id="metadata81">
    <rdf:RDF>
      <cc:Work
         rdf:about="">
        <dc:format>image/svg+xml</dc:format>
        <dc:type
           rdf:resource="http://purl.org/dc/dcmitype/StillImage" />
      </cc:Work>
    </rdf:RDF>
  </metadata>
  <sodipodi:namedview
     pagecolor="#ffffff"
     bordercolor="#666666"
     borderopacity="1"
     objecttolerance="10"
     gridtolerance="10"
     guidetolerance="10"
     inkscape:pageopacity="0"
     inkscape:pageshadow="2"
     inkscape:window-width="1855"
     inkscape:window-height="1056"
     id="namedview79"
     showgrid="true"
     fit-margin-top="0"
     fit-margin-left="0"
     fit-margin-right="0"
     fit-margin-bottom="0"
     inkscape:object-nodes="true"
     inkscape:zoom="1.1508998"
     inkscape:cx="396.45727"
     inkscape:cy="431.24326"
     inkscape:window-x="65"
     inkscape:window-y="24"
     inkscape:window-maximized="1"
     inkscape:current-layer="canvas">
    <inkscape:grid
       type="xygrid"
       id="grid3060"
       empspacing="5"
       visible="true"
       enabled="true"
       snapvisiblegridlinesonly="true"
       dotted="true"
       originx="133.04627px"
       originy="-6.9537351px" />
  </sodipodi:namedview>
  <desc
     id="desc3">Created with Snap</desc>
  <defs
     id="defs5" />
  <g
     id="g3078">
    <rect
       id="rect105"
       x="259.19806"
       y="634.59827"
       width="27.272728"
       height="60"
       rx="3.030303"
       ry="2"
       style="fill:#000000" />
    <rect
       id="rect107"
       x="289.5011"
       y="634.59827"
       width="27.272728"
       height="60"
       rx="3.030303"
       ry="2"
       style="fill:#000000" />
    <rect
       id="rect109"
       x="319.80411"
       y="634.59827"
       width="27.272728"
       height="60"
       rx="3.030303"
       ry="2"
       style="fill:#000000" />
    <rect
       id="rect111"
       x="350.10715"
       y="634.59827"
       width="27.272728"
       height="60"
       rx="3.030303"
       ry="2"
       style="fill:#000000" />
    <rect
       id="rect113"
       x="380.41019"
       y="634.59827"
       width="27.272728"
       height="60"
       rx="3.030303"
       ry="2"
       style="fill:#000000" />
    <rect
       id="rect115"
       x="410.71323"
       y="634.59827"
       width="27.272728"
       height="60"
       rx="3.030303"
       ry="2"
       style="fill:#000000" />
    <rect
       id="rect117"
       x="441.01624"
       y="634.59827"
       width="27.272728"
       height="60"
       rx="3.030303"
       ry="2"
       style="fill:#000000" />
    <rect
       id="rect119"
       x="471.31927"
       y="634.59827"
       width="27.272728"
       height="60"
       rx="3.030303"
       ry="2"
       style="fill:#000000" />
    <rect
       id="rect121"
       x="501.62231"
       y="634.59827"
       width="27.272728"
       height="60"
       rx="3.030303"
       ry="2"
       style="fill:#000000" />
    <rect
       id="rect123"
       x="531.92535"
       y="634.59827"
       width="27.272728"
       height="60"
       rx="3.030303"
       ry="2"
       style="fill:#dddddd" />
  </g>
  <g
     id="look"
     transform="matrix(1.8982388,0,0,1.8982388,-360.01121,-1224.6561)">
    <path
       transform="translate(353.84597,750.68332)"
       d="m 106.78397,53.647377 c 0,29.353716 -23.795889,53.149603 -53.149605,53.149603 -29.353716,0 -53.14960472,-23.795887 -53.14960472,-53.149603 0,-29.353716 23.79588872,-53.14960478 53.14960472,-53.14960478 29.353716,0 53.149605,23.79588878 53.149605,53.14960478 z"
       sodipodi:ry="53.149605"
       sodipodi:rx="53.149605"
       sodipodi:cy="53.647377"
       sodipodi:cx="53.634365"
       id="path3861-4"
       style="fill:#cccccc;stroke:none"
       sodipodi:type="arc" />
    <path
       sodipodi:nodetypes="cc"
       style="fill:none;stroke:#000000;stroke-width:3.75;stroke-linecap:butt;stroke-linejoin:miter;stroke-miterlimit:4;stroke-opacity:1;stroke-dasharray:none"
       d="m 372.04726,804.33069 70.86614,0"
       id="path3901-0"
       inkscape:connector-curvature="0" />
    <path
       sodipodi:nodetypes="cc"
       style="fill:none;stroke:#000000;stroke-width:3.75;stroke-linecap:butt;stroke-linejoin:miter;stroke-miterlimit:4;stroke-opacity:1;stroke-dasharray:none"
       d="m 407.48033,839.76377 0,-70.86615"
       id="path3901-7-6"
       inkscape:connector-curvature="0" />
  </g>
  <circle
     style="fill:#ffffff;stroke:#cccccc;stroke-width:4"
     r="80"
     cy="100"
     cx="300"
     id="circle9"
     sodipodi:cx="300"
     sodipodi:cy="100"
     sodipodi:rx="80"
     sodipodi:ry="80"
     transform="translate(113.48377,1.2649868)" />
  <circle
     style="fill:#ffffff;stroke:#ffffff;stroke-width:5.94099998"
     r="29.702999"
     cy="57.127998"
     cx="300"
     id="circle11"
     sodipodi:cx="300"
     sodipodi:cy="57.127998"
     sodipodi:rx="29.702999"
     sodipodi:ry="29.702999"
     transform="translate(113.48377,1.2649868)" />
  <circle
     style="fill:#ffffff;stroke:#000000;stroke-width:5.94099998"
     r="29.702999"
     cy="121.436"
     cx="262.87201"
     id="circle13"
     sodipodi:cx="262.87201"
     sodipodi:cy="121.436"
     sodipodi:rx="29.702999"
     sodipodi:ry="29.702999"
     transform="translate(113.48377,1.2649868)" />
  <circle
     style="fill:#000000;stroke:#000000;stroke-width:5.94099998"
     r="29.702999"
     cy="121.436"
     cx="337.12799"
     id="circle15"
     sodipodi:cx="337.12799"
     sodipodi:cy="121.436"
     sodipodi:rx="29.702999"
     sodipodi:ry="29.702999"
     transform="translate(113.48377,1.2649868)" />
  <circle
     style="fill:#ffffff;stroke:#cccccc;stroke-width:4"
     r="80"
     cy="200"
     cx="126.795"
     id="circle17"
     sodipodi:cx="126.795"
     sodipodi:cy="200"
     sodipodi:rx="80"
     sodipodi:ry="80"
     transform="translate(113.48377,1.2649868)" />
  <circle
     style="fill:#000000;stroke:#000000;stroke-width:5.94099998"
     r="29.702999"
     cy="157.12801"
     cx="126.795"
     id="circle19"
     sodipodi:cx="126.795"
     sodipodi:cy="157.12801"
     sodipodi:rx="29.702999"
     sodipodi:ry="29.702999"
     transform="translate(113.48377,1.2649868)" />
  <circle
     style="fill:#ffffff;stroke:#ffffff;stroke-width:5.94099998"
     r="29.702999"
     cy="221.436"
     cx="89.667"
     id="circle21"
     sodipodi:cx="89.667"
     sodipodi:cy="221.436"
     sodipodi:rx="29.702999"
     sodipodi:ry="29.702999"
     transform="translate(113.48377,1.2649868)" />
  <circle
     style="fill:#ffffff;stroke:#000000;stroke-width:5.94099998"
     r="29.702999"
     cy="221.436"
     cx="163.923"
     id="circle23"
     sodipodi:cx="163.923"
     sodipodi:cy="221.436"
     sodipodi:rx="29.702999"
     sodipodi:ry="29.702999"
     transform="translate(113.48377,1.2649868)" />
  <circle
     style="fill:#ffffff;stroke:#cccccc;stroke-width:4"
     r="80"
     cy="400"
     cx="126.795"
     id="circle25"
     sodipodi:cx="126.795"
     sodipodi:cy="400"
     sodipodi:rx="80"
     sodipodi:ry="80"
     transform="translate(113.48377,1.2649868)" />
  <circle
     style="fill:#ffffff;stroke:#000000;stroke-width:5.94099998"
     r="29.702999"
     cy="357.12799"
     cx="126.795"
     id="circle27"
     sodipodi:cx="126.795"
     sodipodi:cy="357.12799"
     sodipodi:rx="29.702999"
     sodipodi:ry="29.702999"
     transform="translate(113.48377,1.2649868)" />
  <circle
     style="fill:#ffffff;stroke:#ffffff;stroke-width:5.94099998"
     r="29.702999"
     cy="421.436"
     cx="89.667"
     id="circle29"
     sodipodi:cx="89.667"
     sodipodi:cy="421.436"
     sodipodi:rx="29.702999"
     sodipodi:ry="29.702999"
     transform="translate(113.48377,1.2649868)" />
  <circle
     style="fill:#ffffff;stroke:#000000;stroke-width:5.94099998"
     r="29.702999"
     cy="421.436"
     cx="163.923"
     id="circle31"
     sodipodi:cx="163.923"
     sodipodi:cy="421.436"
     sodipodi:rx="29.702999"
     sodipodi:ry="29.702999"
     transform="translate(113.48377,1.2649868)" />
  <circle
     style="fill:#ffffff;stroke:#cccccc;stroke-width:4"
     r="80"
     cy="500"
     cx="300"
     id="circle33"
     sodipodi:cx="300"
     sodipodi:cy="500"
     sodipodi:rx="80"
     sodipodi:ry="80"
     transform="translate(113.48377,1.2649868)" />
  <circle
     style="fill:#000000;stroke:#000000;stroke-width:5.94099998"
     r="29.702999"
     cy="457.12799"
     cx="300"
     id="circle35"
     sodipodi:cx="300"
     sodipodi:cy="457.12799"
     sodipodi:rx="29.702999"
     sodipodi:ry="29.702999"
     transform="translate(113.48377,1.2649868)" />
  <circle
     style="fill:#000000;stroke:#000000;stroke-width:5.94099998"
     r="29.702999"
     cy="521.43597"
     cx="262.87201"
     id="circle37"
     sodipodi:cx="262.87201"
     sodipodi:cy="521.43597"
     sodipodi:rx="29.702999"
     sodipodi:ry="29.702999"
     transform="translate(113.48377,1.2649868)" />
  <circle
     style="fill:#ffffff;stroke:#ffffff;stroke-width:5.94099998"
     r="29.702999"
     cy="521.43597"
     cx="337.12799"
     id="circle39"
     sodipodi:cx="337.12799"
     sodipodi:cy="521.43597"
     sodipodi:rx="29.702999"
     sodipodi:ry="29.702999"
     transform="translate(113.48377,1.2649868)" />
  <circle
     style="fill:#ffffff;stroke:#cccccc;stroke-width:4"
     r="80"
     cy="400"
     cx="473.20499"
     id="circle41"
     sodipodi:cx="473.20499"
     sodipodi:cy="400"
     sodipodi:rx="80"
     sodipodi:ry="80"
     transform="translate(113.48377,1.2649868)" />
  <circle
     style="fill:#000000;stroke:#000000;stroke-width:5.94099998"
     r="29.702999"
     cy="357.12799"
     cx="473.20499"
     id="circle43"
     sodipodi:cx="473.20499"
     sodipodi:cy="357.12799"
     sodipodi:rx="29.702999"
     sodipodi:ry="29.702999"
     transform="translate(113.48377,1.2649868)" />
  <circle
     style="fill:#ffffff;stroke:#ffffff;stroke-width:5.94099998"
     r="29.702999"
     cy="421.436"
     cx="436.077"
     id="circle45"
     sodipodi:cx="436.077"
     sodipodi:cy="421.436"
     sodipodi:rx="29.702999"
     sodipodi:ry="29.702999"
     transform="translate(113.48377,1.2649868)" />
  <circle
     style="fill:#000000;stroke:#000000;stroke-width:5.94099998"
     r="29.702999"
     cy="421.436"
     cx="510.33301"
     id="circle47"
     sodipodi:cx="510.33301"
     sodipodi:cy="421.436"
     sodipodi:rx="29.702999"
     sodipodi:ry="29.702999"
     transform="translate(113.48377,1.2649868)" />
  <circle
     style="fill:#ffffff;stroke:#cccccc;stroke-width:4"
     r="80"
     cy="200"
     cx="473.20499"
     id="circle49"
     sodipodi:cx="473.20499"
     sodipodi:cy="200"
     sodipodi:rx="80"
     sodipodi:ry="80"
     transform="translate(113.48377,1.2649868)" />
  <circle
     style="fill:#ffffff;stroke:#ffffff;stroke-width:5.94099998"
     r="29.702999"
     cy="157.12801"
     cx="473.20499"
     id="circle51"
     sodipodi:cx="473.20499"
     sodipodi:cy="157.12801"
     sodipodi:rx="29.702999"
     sodipodi:ry="29.702999"
     transform="translate(113.48377,1.2649868)" />
  <circle
     style="fill:#ffffff;stroke:#000000;stroke-width:5.94099998"
     r="29.702999"
     cy="221.436"
     cx="436.077"
     id="circle53"
     sodipodi:cx="436.077"
     sodipodi:cy="221.436"
     sodipodi:rx="29.702999"
     sodipodi:ry="29.702999"
     transform="translate(113.48377,1.2649868)" />
  <circle
     style="fill:#ffffff;stroke:#000000;stroke-width:5.94099998"
     r="29.702999"
     cy="221.436"
     cx="510.33301"
     id="circle55"
     sodipodi:cx="510.33301"
     sodipodi:cy="221.436"
     sodipodi:rx="29.702999"
     sodipodi:ry="29.702999"
     transform="translate(113.48377,1.2649868)" />
  <path
     style="fill:none;stroke:#d40000;stroke-width:5;stroke-linecap:butt;stroke-linejoin:miter;stroke-miterlimit:4;stroke-opacity:1;stroke-dasharray:none"
     d="m 483.04627,83.046264 105,-20"
     id="path3070"
     inkscape:connector-curvature="0" />
  <path
     style="fill:none;stroke:#d40000;stroke-width:5.90096855;stroke-linecap:butt;stroke-linejoin:miter;stroke-miterlimit:4;stroke-opacity:1;stroke-dasharray:none"
     d="m 603.04627,143.04627 30,-70.000006"
     id="path3070-4"
     inkscape:connector-curvature="0"
     sodipodi:nodetypes="cc" />
  <rect
     style="fill:#ff5555;fill-opacity:1;stroke:#d40000;stroke-width:6.13331413;stroke-miterlimit:4;stroke-dasharray:none;stroke-dashoffset:0"
     id="rect3068"
     width="149.99997"
     height="80"
     x="573.04626"
     y="13.046265"
     ry="21.81818" />
  <text
     xml:space="preserve"
     style="font-size:28px;font-style:normal;font-variant:normal;font-weight:normal;font-stretch:normal;text-align:center;line-height:125%;letter-spacing:0px;word-spacing:0px;text-anchor:middle;fill:#000000;fill-opacity:1;stroke:none;font-family:Cabin;-inkscape-font-specification:Cabin"
     x="648.04626"
     y="63.046265"
     id="text3064"
     sodipodi:linespacing="125%"><tspan
       sodipodi:role="line"
       x="648.04626"
       y="63.046265"
       id="tspan3031">Patterns</tspan></text>
  <path
     style="fill:none;stroke:#d40000;stroke-width:5;stroke-linecap:butt;stroke-linejoin:miter;stroke-miterlimit:4;stroke-opacity:1;stroke-dasharray:none"
     d="m 503.04627,303.04627 180,0"
     id="path3070-7"
     inkscape:connector-curvature="0"
     sodipodi:nodetypes="cc" />
  <rect
     style="fill:#ff5555;fill-opacity:1;stroke:#d40000;stroke-width:6.21581459;stroke-miterlimit:4;stroke-dasharray:none;stroke-dashoffset:0"
     id="rect3068-6"
     width="144.99997"
     height="85"
     x="673.04626"
     y="258.04626"
     ry="23.181816" />
  <text
     xml:space="preserve"
     style="font-size:28px;font-style:normal;font-variant:normal;font-weight:normal;font-stretch:normal;text-align:center;line-height:125%;letter-spacing:0px;word-spacing:0px;text-anchor:middle;fill:#000000;fill-opacity:1;stroke:none;font-family:Cabin;-inkscape-font-specification:Cabin"
     x="748.0462"
     y="293.04626"
     id="text3064-6"
     sodipodi:linespacing="125%"><tspan
       sodipodi:role="line"
       id="tspan3066-5"
       x="748.0462"
       y="293.04626">Your</tspan><tspan
       sodipodi:role="line"
       x="748.0462"
       y="328.04626"
       id="tspan3033">Choice</tspan></text>
  <path
     style="fill:none;stroke:#d40000;stroke-width:5;stroke-linecap:butt;stroke-linejoin:miter;stroke-miterlimit:4;stroke-opacity:1;stroke-dasharray:none"
     d="m 498.04627,653.04627 115,-65"
     id="path3070-44"
     inkscape:connector-curvature="0"
     sodipodi:nodetypes="cc" />
  <rect
     style="fill:#ff5555;fill-opacity:1;stroke:#d40000;stroke-width:4.84881067;stroke-miterlimit:4;stroke-dasharray:none;stroke-dashoffset:0"
     id="rect3068-63"
     width="149.99997"
     height="50"
     x="553.04639"
     y="553.04626"
     ry="13.636362" />
  <text
     xml:space="preserve"
     style="font-size:28px;font-style:normal;font-variant:normal;font-weight:normal;font-stretch:normal;text-align:center;line-height:125%;letter-spacing:0px;word-spacing:0px;text-anchor:middle;fill:#000000;fill-opacity:1;stroke:none;font-family:Cabin;-inkscape-font-specification:Cabin"
     x="628.04626"
     y="588.04626"
     id="text3064-8"
     sodipodi:linespacing="125%"><tspan
       sodipodi:role="line"
       id="tspan3066-2"
       x="628.04626"
       y="588.04626">Lives</tspan></text>
</svg>
